…
# rank scaling by group
rank_group_scaling <- anim_prep(data = osiris, id = ID, values = sales, time = year, 
                                group = country)
#> You can now pass the object to the plot function.

# absolute scaling by group
absolute_group_scaling <- anim_prep(data = osiris, id = ID, values = sales, time = year,
                                    group = country, scaling = "absolute")
#> You can now pass the object to the plot function.

rank_scaling
#> $data
#> # A tibble: 10,270 × 3
#>    id            time qtile
#>    <fct>        <int> <dbl>
#>  1 AE30008GU     2006     1
#>  2 AT9110050653  2006     3
#>  3 AU001150849   2006     5
#>  4 AU004085330   2006     1
#>  5 AU006624228   2006     2
#>  6 AU008720223   2006     5
#>  7 AU009066648   2006     5
#>  8 AU009134114   2006     3
#>  9 AU009213754   2006     4
#> 10 AU009219809   2006     2
#> # ℹ 10,260 more rows
…
