What the Package Does (One Line, Title Case) • animbook
…
# absolute scaling
absolute_scaling <- anim_prep(data = osiris, id = firmID, values = sales, time = year,
                              scaling = "absolute")

# rank scaling by group
rank_group_scaling <- anim_prep(data = osiris, id = firmID, values = sales, time = year, 
                                group = country)

# absolute scaling by group
absolute_group_scaling <- anim_prep(data = osiris, id = firmID, values = sales, time = year,
                                    group = country, scaling = "absolute")

rank_scaling
#> $data
#> # A tibble: 10,270 × 4
#>    id                              time qtile frame
#>    <fct>                          <int> <dbl> <int>
#>  1 1&1 VERSATEL GMBH DE2011730431  2006     2     1
#>  2 1&1 VERSATEL GMBH DE2011730431  2007     2     2
#>  3 1&1 VERSATEL GMBH DE2011730431  2008     2     3
#>  4 1&1 VERSATEL GMBH DE2011730431  2009     2     4
#>  5 1&1 VERSATEL GMBH DE2011730431  2010     2     5
#>  6 1&1 VERSATEL GMBH DE2011730431  2011     2     6
#>  7 1&1 VERSATEL GMBH DE2011730431  2012     0     7
#>  8 1&1 VERSATEL GMBH DE2011730431  2013     0     8
#>  9 1&1 VERSATEL GMBH DE2011730431  2014     0     9
#> 10 1&1 VERSATEL GMBH DE2011730431  2015     0    10
#> # ℹ 10,260 more rows
…
