animbook • animbook
…
# absolute scaling by group
absolute_group_scaling <- anim_prep(data = dbl_change, 
                             id = id, 
                             values = values,
                             time = time,
                             group_scaling = gp,
                             scaling = "absolute")

rank_scaling
#> # A tibble: 400 × 4
#>    id     time qtile label
#>    <fct> <int> <int> <chr>
#>  1 1      2020     3 3    
#>  2 2      2020     2 2    
#>  3 3      2020     4 4    
#>  4 4      2020     3 3    
#>  5 5      2020     2 2    
#>  6 6      2020     2 2    
#>  7 7      2020     4 4    
#>  8 8      2020     4 4    
#>  9 9      2020     3 3    
#> 10 10     2020     4 4    
#> # ℹ 390 more rows
…
