Prepare Category Data for Visualizations — anim_prep_cat • animbook
…
settings
A list of settings to be used in the plot function, including gap, xbreaks, label, scaling, time_dependent,
runif_min, and runif_max

    Details

    The function takes the input data and performs several operations to prepare it for visualizations.
It assigns frames and creates necessary data and settings for the plot function.

    Examples

anim_prep_cat(data = aeles, id = id, values = party, time = year)
#> $data
#> # A tibble: 1,468 × 4
#>    id         time qtile frame
#>    <fct>     <int> <dbl> <int>
#>  1 219810001  2016     6     1
#>  2 219810001  2019     5     2
#>  3 219810003  2016     5     1
#>  4 219810003  2019     5     2
#>  5 219810004  2016     2     1
#>  6 219810004  2019     6     2
#>  7 219810005  2016     5     1
#>  8 219810005  2019     5     2
#>  9 219810007  2016     4     1
#> 10 219810007  2019     4     2
#> # ℹ 1,458 more rows
…
